files,language,blank,comment,code
27,JavaScript,2707,2546,8522
28,CSS,970,551,4449
15,Python,1214,983,2697
19,HTML,667,43,2413
15,Sass,478,120,2090
5,Markdown,408,0,993
2,TeX,65,59,657
7,PHP,45,30,191
3,JSON,0,0,89
6,INI,10,13,35
1,make,10,0,22
1,YAML,0,0,5
