Editor,Command Line,Directories,Export,Outline,Split Screen
Caret,No,Yes,Yes,Yes,No
LightPaper,No,Yes,Yes,No,No
MacDown,No,No,Yes,No,No
MultiMarkdown Composer,No,No,Yes,Yes,No
PyCharm,Yes,Yes,No,No,Yes
Typora,No,Yes,Yes,Yes,No